<svg width="48" height="48" viewBox="0 0 48 48" fill="#1C1917" xmlns="http://www.w3.org/2000/svg">
<path d="M40 19.3401V19.0001C40.0121 15.598 38.9327 12.2817 36.9203 9.53852C34.908 6.79536 32.0688 4.77001 28.82 3.76009H28.7C27.0221 3.24856 25.2738 3.00556 23.52 3.04009C19.3437 3.26927 15.4122 5.08359 12.528 8.11274C9.6438 11.1419 8.02429 15.1575 8.00001 19.3401C6.82803 19.7524 5.81293 20.5183 5.09484 21.5321C4.37675 22.546 3.99109 23.7577 3.99109 25.0001C3.99109 26.2425 4.37675 27.4542 5.09484 28.4681C5.81293 29.4819 6.82803 30.2478 8.00001 30.6601C8.41194 34.6096 10.2778 38.2649 13.235 40.9152C16.1921 43.5655 20.0291 45.0215 24 45.0001H24.46C28.2999 44.8142 31.9498 43.2738 34.7618 40.6522C37.5737 38.0307 39.3658 34.4976 39.82 30.6801C41.0058 30.2911 42.0408 29.5421 42.7809 28.5373C43.521 27.5325 43.9293 26.322 43.9491 25.0742C43.9689 23.8264 43.5992 22.6035 42.8914 21.5757C42.1835 20.548 41.1728 19.7665 40 19.3401V19.3401ZM24.36 41.0001C21.4648 41.0838 18.637 40.1176 16.3984 38.2797C14.1598 36.4418 12.6615 33.8562 12.18 31.0001H35.72C35.2319 33.7039 33.844 36.1632 31.7817 37.9786C29.7194 39.794 27.1039 40.8588 24.36 41.0001ZM38 27.0001H10C9.46958 27.0001 8.96087 26.7894 8.5858 26.4143C8.21072 26.0392 8.00001 25.5305 8.00001 25.0001C8.00001 24.4697 8.21072 23.9609 8.5858 23.5859C8.96087 23.2108 9.46958 23.0001 10 23.0001H14C14.5304 23.0001 15.0391 22.7894 15.4142 22.4143C15.7893 22.0392 16 21.5305 16 21.0001C16 20.4697 15.7893 19.9609 15.4142 19.5859C15.0391 19.2108 14.5304 19.0001 14 19.0001H12C12.0895 16.9253 12.6825 14.9035 13.7278 13.109C14.7732 11.3146 16.2394 9.80141 18 8.70009V15.0001C18 15.5305 18.2107 16.0392 18.5858 16.4143C18.9609 16.7894 19.4696 17.0001 20 17.0001C20.5304 17.0001 21.0391 16.7894 21.4142 16.4143C21.7893 16.0392 22 15.5305 22 15.0001V7.18009C22.5429 7.08939 23.0904 7.0293 23.64 7.00009H24C24.6703 7.00953 25.3388 7.0697 26 7.18009V15.0001C26 15.5305 26.2107 16.0392 26.5858 16.4143C26.9609 16.7894 27.4696 17.0001 28 17.0001C28.5304 17.0001 29.0391 16.7894 29.4142 16.4143C29.7893 16.0392 30 15.5305 30 15.0001V8.64009C30.8484 9.13134 31.6399 9.71488 32.36 10.3801C33.5131 11.4999 34.4295 12.8399 35.0548 14.3207C35.6801 15.8014 36.0015 17.3927 36 19.0001H34C33.4696 19.0001 32.9609 19.2108 32.5858 19.5859C32.2107 19.9609 32 20.4697 32 21.0001C32 21.5305 32.2107 22.0392 32.5858 22.4143C32.9609 22.7894 33.4696 23.0001 34 23.0001H38C38.5304 23.0001 39.0391 23.2108 39.4142 23.5859C39.7893 23.9609 40 24.4697 40 25.0001C40 25.5305 39.7893 26.0392 39.4142 26.4143C39.0391 26.7894 38.5304 27.0001 38 27.0001Z" />
</svg>
