<svg width="48" height="48" viewBox="0 0 48 48" fill="#1C1917" xmlns="http://www.w3.org/2000/svg">
<path d="M42.98 9.45997L34 4.33997C33.696 4.16443 33.3511 4.07202 33 4.07202C32.6489 4.07202 32.304 4.16443 32 4.33997L24 8.89997L16 4.33997C15.696 4.16443 15.3511 4.07202 15 4.07202C14.6489 4.07202 14.304 4.16443 14 4.33997L5.02 9.45997C4.71107 9.63362 4.45382 9.88624 4.2746 10.192C4.09538 10.4977 4.00061 10.8456 4 11.2V21.44C4.00061 21.7944 4.09538 22.1422 4.2746 22.448C4.45382 22.7537 4.71107 23.0063 5.02 23.18L13.02 27.72V36.8C13.0206 37.1544 13.1154 37.5022 13.2946 37.808C13.4738 38.1137 13.7311 38.3663 14.04 38.54L23.04 43.66C23.344 43.8355 23.6889 43.9279 24.04 43.9279C24.3911 43.9279 24.736 43.8355 25.04 43.66L34 38.54C34.3089 38.3663 34.5662 38.1137 34.7454 37.808C34.9246 37.5022 35.0194 37.1544 35.02 36.8V27.72L43.02 23.18C43.3289 23.0063 43.5862 22.7537 43.7654 22.448C43.9446 22.1422 44.0394 21.7944 44.04 21.44V11.2C44.0354 10.8416 43.9347 10.491 43.7482 10.1849C43.5617 9.87877 43.2964 9.6284 42.98 9.45997V9.45997ZM8 20.28V12.28L15 8.27997L22 12.28V20.28L15 24.28L8 20.28ZM31 35.64L24 39.64L17 35.64V27.64L24 23.64L31 27.64V35.64ZM40 20.28L33 24.28L26 20.28V12.28L33 8.27997L40 12.28V20.28Z" />
</svg>
